<svg xmlns="http://www.w3.org/2000/svg" width="34" height="24" viewBox="0 0 34 24">
  <defs>
    <style>
      .cls-1 {
        fill: #d6dbe8;
        fill-rule: evenodd;
      }
    </style>
  </defs>
  <path id="Discreption_Ico" data-name="Discreption  Ico" class="cls-1" d="M763.513,476.819H730.521a0.289,0.289,0,0,1-.3-0.288V453.465a0.288,0.288,0,0,1,.3-0.286H763.55a0.288,0.288,0,0,1,.3.286v23.1A0.324,0.324,0,0,1,763.513,476.819Zm-32.73-.538h32.468V453.753H730.783v22.528ZM763.513,477H730.521a0.472,0.472,0,0,1-.485-0.467V453.465a0.47,0.47,0,0,1,.485-0.466H763.55a0.472,0.472,0,0,1,.485.466l0,23.146A0.509,0.509,0,0,1,763.513,477Zm-32.992-23.64a0.105,0.105,0,0,0-.112.107v23.066a0.108,0.108,0,0,0,.112.109h32.992a0.141,0.141,0,0,0,.149-0.1V453.465a0.106,0.106,0,0,0-.112-0.107H730.521Zm32.917,23.1H730.6V453.573h32.842V476.46Zm-32.469-.359h32.1V453.932h-32.1V476.1Zm16.048-15.891H735a0.289,0.289,0,0,1-.3-0.287v-3.157a0.288,0.288,0,0,1,.3-0.287h12.017a0.289,0.289,0,0,1,.3.287v3.193A0.285,0.285,0,0,1,747.017,460.21Zm-11.719-.539h11.457v-2.654H735.3v2.654Zm11.719,0.718H735a0.473,0.473,0,0,1-.486-0.466v-3.157A0.471,0.471,0,0,1,735,456.3h12.017a0.472,0.472,0,0,1,.485.466v3.193A0.466,0.466,0,0,1,747.017,460.389ZM735,456.658a0.106,0.106,0,0,0-.112.108v3.157a0.106,0.106,0,0,0,.112.107h12.017a0.111,0.111,0,0,0,.112-0.071v-3.193a0.106,0.106,0,0,0-.112-0.108H735Zm11.942,3.193h-11.83v-3.014h11.83v3.014Zm-11.457-.359h11.084v-2.3H735.485v2.3Zm23.549,14.062H735a0.289,0.289,0,0,1-.3-0.287V463.151a0.289,0.289,0,0,1,.3-0.287h24.034a0.29,0.29,0,0,1,.3.287v10.116A0.35,0.35,0,0,1,759.034,473.554Zm-23.736-.538h23.438V463.4H735.3v9.614Zm23.736,0.718H735a0.473,0.473,0,0,1-.486-0.467V463.151a0.471,0.471,0,0,1,.486-0.466h24.034a0.472,0.472,0,0,1,.485.466l0,10.16A0.532,0.532,0,0,1,759.034,473.734ZM735,463.043a0.106,0.106,0,0,0-.112.108v10.116a0.107,0.107,0,0,0,.112.108h24.034a0.179,0.179,0,0,0,.112-0.133V463.151a0.107,0.107,0,0,0-.112-0.108H735ZM758.922,473.2h-23.81v-9.972h23.81V473.2Zm-23.437-.358h23.064v-9.256H735.485v9.256Z" transform="translate(-730.031 -453)"/>
</svg>
