<svg xmlns="http://www.w3.org/2000/svg" width="27.031" height="25" viewBox="0 0 27.031 25">
  <defs>
    <style>
      .cls-1 {
        fill: #39b0fb;
        fill-rule: evenodd;
      }
    </style>
  </defs>
  <path id="Drink_Ico" data-name="Drink Ico" class="cls-1" d="M754.519,458.483l0.127-2.756,1.54-2.388a0.887,0.887,0,0,0,.042-0.884,0.832,0.832,0,0,0-.736-0.455H733.807a0.829,0.829,0,0,0-.735.455,0.882,0.882,0,0,0,.041.884l1.54,2.388,0.823,17.866a0.847,0.847,0,0,0,.833.821h2.5v1.724a0.848,0.848,0,0,0,.834.862h10.009a0.848,0.848,0,0,0,.834-0.862v-1.724h2.5a0.847,0.847,0,0,0,.833-0.821l0.142-3.1a0.794,0.794,0,0,0,.207.043A6.04,6.04,0,0,0,754.519,458.483Zm-0.585-4.759-0.556.862H735.921l-0.556-.862h18.569Zm-5.114,21.552h-8.341v-0.862h8.341v0.862Zm3.375-2.586h-15.09l-0.755-16.38h16.6Zm1.977-3.88a0.715,0.715,0,0,0-.13.027l0.4-8.62A4.307,4.307,0,0,1,754.172,468.81ZM738.811,470.1a0.849,0.849,0,0,1-.834-0.863V458.9a0.834,0.834,0,1,1,1.668,0v10.344A0.848,0.848,0,0,1,738.811,470.1Z" transform="translate(-732.969 -452)"/>
</svg>
