<svg xmlns="http://www.w3.org/2000/svg" width="33" height="24" viewBox="0 0 33 24">
  <defs>
    <style>
      .cls-1 {
        fill: #dfe3ed;
        fill-rule: evenodd;
      }
    </style>
  </defs>
  <path id="Img_Ico" data-name="Img Ico" class="cls-1" d="M986.511,699A2.51,2.51,0,0,0,984,701.47v19.059A2.51,2.51,0,0,0,986.511,723h27.979a2.51,2.51,0,0,0,2.51-2.471V701.47a2.51,2.51,0,0,0-2.51-2.47H986.511Zm0,2.118h27.979a0.333,0.333,0,0,1,.36.352v13.324l-5.43-4.268a1.123,1.123,0,0,0-1.28-.055l-5.08,3.441-6.909-5.5a1.069,1.069,0,0,0-1.289-.044l-8.71,5.912V701.47A0.334,0.334,0,0,1,986.511,701.118Zm16.5,2.118a3.176,3.176,0,1,0,3.23,3.176A3.217,3.217,0,0,0,1003.01,703.236Zm0,2.117a1.059,1.059,0,1,1-1.08,1.059A1.054,1.054,0,0,1,1003.01,705.353Zm-7.576,5.206,6.906,5.492a1.122,1.122,0,0,0,1.28.055l5.07-3.441,6.16,4.842v3.022a0.334,0.334,0,0,1-.36.353H986.511a0.334,0.334,0,0,1-.359-0.353v-3.672Z" transform="translate(-984 -699)"/>
</svg>
