<svg xmlns="http://www.w3.org/2000/svg" width="31.969" height="29.031" viewBox="0 0 31.969 29.031">
  <defs>
    <style>
      .cls-1 {
        fill: #d6dbe8;
        fill-rule: evenodd;
      }
    </style>
  </defs>
  <path id="Phone_Ico" data-name="Phone Ico" class="cls-1" d="M743.364,724.075a4.729,4.729,0,0,0,2.712,1.374,3.634,3.634,0,0,0,3.05-1.35,3.116,3.116,0,0,1,1.348-.962,2.983,2.983,0,0,1,2.195.328c1.538,1.084,3.124,2.181,4.637,3.3A2.149,2.149,0,0,1,757.98,729a4.229,4.229,0,0,1-1.192,1.656c-2.569,2.485-5.612,3.685-8.6,3.266-2.885-.464-5.677-2.339-8.771-5.212l-3.683-3.418c-3.094-2.872-5.115-5.463-5.615-8.141-0.593-3.312,1.3-6.007,3.519-7.981a4.589,4.589,0,0,1,1.784-1.106,2.56,2.56,0,0,1,2.417.626c1.2,1.4,2.383,2.876,3.551,4.3a2.441,2.441,0,0,1,.353,2.037,2.944,2.944,0,0,1-1.036,1.251,3.173,3.173,0,0,0-1.455,2.831,4.206,4.206,0,0,0,1.48,2.518m-1.052.976a5.416,5.416,0,0,1-1.916-3.365,4.628,4.628,0,0,1,1.949-3.99,2.071,2.071,0,0,0,.616-0.663,1.068,1.068,0,0,0-.238-0.909l-3.3-4.013a0.774,0.774,0,0,0-.921-0.289,3.559,3.559,0,0,0-1.184.778c-2.663,2.471-3.5,4.565-3.091,6.76s2.191,4.612,5.2,7.4c1.232,1.145,2.588,2.4,3.682,3.419,3,2.787,5.61,4.442,7.974,4.822s4.62-.4,7.283-2.869a3.331,3.331,0,0,0,.839-1.1,0.66,0.66,0,0,0-.313-0.854l-4.324-3.067a1.3,1.3,0,0,0-.978-0.222,2.169,2.169,0,0,0-.715.573,5.325,5.325,0,0,1-4.3,1.808,6.106,6.106,0,0,1-3.626-1.778m1.795-19.32a0.757,0.757,0,0,0,.785.653c8.638,0,15.624,6.484,15.624,14.5a0.746,0.746,0,0,0,1.489,0c0-8.764-7.671-15.883-17.113-15.883A0.773,0.773,0,0,0,744.106,705.732Zm0,4.143a0.756,0.756,0,0,0,.785.653c6.172,0,11.161,4.63,11.161,10.359a0.745,0.745,0,0,0,1.488,0c0-6.476-5.673-11.74-12.649-11.74a0.781,0.781,0,0,0-.785.728h0Z" transform="translate(-730.031 -705)"/>
</svg>
