<svg xmlns="http://www.w3.org/2000/svg" width="11" height="11" viewBox="0 0 11 11">
  <defs>
    <style>
      .cls-1 {
        fill: #de3c3c;
        fill-rule: evenodd;
      }
    </style>
  </defs>
  <path id="Calender_-_Red_" data-name="Calender - Red " class="cls-1" d="M561,493H550V482" transform="translate(-550 -482)"/>
</svg>
