<svg xmlns="http://www.w3.org/2000/svg" width="11" height="11" viewBox="0 0 11 11">
  <defs>
    <style>
      .cls-1 {
        fill: #e3e5e8;
        fill-rule: evenodd;
      }
    </style>
  </defs>
  <path id="Calender_-_Gray" data-name="Calender - Gray" class="cls-1" d="M729,493H718V482" transform="translate(-718 -482)"/>
</svg>
