<svg xmlns="http://www.w3.org/2000/svg" width="10" height="21" viewBox="0 0 10 21">
  <defs>
    <style>
      .cls-1 {
        fill: #2a2f34;
        fill-rule: evenodd;
        opacity: 0.1;
      }
    </style>
  </defs>
  <path id="Left_Arrow" data-name="Left Arrow" class="cls-1" d="M1301.72,298.657l-7.68-9.152,7.68-9.152a0.758,0.758,0,0,0,.06-1.1,0.829,0.829,0,0,0-1.14-.063l-8.36,9.733a0.76,0.76,0,0,0,0,1.162l8.36,9.733a0.829,0.829,0,0,0,1.14-.062A0.759,0.759,0,0,0,1301.72,298.657Z" transform="translate(-1292 -279)"/>
</svg>
