<svg xmlns="http://www.w3.org/2000/svg" width="13" height="13" viewBox="0 0 13 13">
  <defs>
    <style>
      .cls-1 {
        fill: #39b0fb;
        fill-rule: evenodd;
      }
    </style>
  </defs>
  <path id="Price" class="cls-1" d="M861.614,558.922a5,5,0,0,0-1.787-.747V555.9a6.7,6.7,0,0,1,1.754.325l0.293-.65a6.089,6.089,0,0,0-2.08-.325V554.6h-0.65v0.682a3.229,3.229,0,0,0-1.462.422,1.307,1.307,0,0,0-.715,1.17,1.474,1.474,0,0,0,.488,1.137,3.957,3.957,0,0,0,1.657.747h0.032v2.372a7.093,7.093,0,0,1-1.169-.1,9.326,9.326,0,0,1-1.105-.26v0.715a6.755,6.755,0,0,0,2.274.292h0v0.65h0.65v-0.682a3.854,3.854,0,0,0,1.5-.423,1.463,1.463,0,0,0,.779-1.3A1.215,1.215,0,0,0,861.614,558.922Zm-2.925-1.137a1.43,1.43,0,0,1-.519-0.39,0.927,0.927,0,0,1-.163-0.553,0.736,0.736,0,0,1,.423-0.682,1.674,1.674,0,0,1,.747-0.227v2.047A3.793,3.793,0,0,1,858.689,557.785Zm1.95,3.054a1.842,1.842,0,0,1-.812.227v-2.144a3.494,3.494,0,0,1,.552.195,2.268,2.268,0,0,1,.585.39,0.75,0.75,0,0,1,.162.552A0.881,0.881,0,0,1,860.639,560.839Zm-1.137-8.188a5.849,5.849,0,1,1-5.849,5.848,5.866,5.866,0,0,1,5.849-5.848m0-.65a6.5,6.5,0,1,0,6.5,6.5A6.518,6.518,0,0,0,859.5,552Z" transform="translate(-853 -552)"/>
</svg>
