<svg xmlns="http://www.w3.org/2000/svg" xmlns:xlink="http://www.w3.org/1999/xlink" width="24.938" height="23" viewBox="0 0 24.938 23">
  <defs>
    <style>
      .cls-1 {
        fill: #fff;
        fill-rule: evenodd;
        filter: url(#filter);
      }
    </style>
    <filter id="filter" x="50" y="408" width="24.938" height="23" filterUnits="userSpaceOnUse">
      <feFlood result="flood" flood-color="#39b0fb"/>
      <feComposite result="composite" operator="in" in2="SourceGraphic"/>
      <feBlend result="blend" in2="SourceGraphic"/>
    </filter>
  </defs>
  <path id="Private_Room_Ico" data-name="Private Room Ico" class="cls-1" d="M73.4,414.088a1.379,1.379,0,0,0,1.4-1.353v-3.247a1.379,1.379,0,0,0-1.4-1.353H51.541a1.379,1.379,0,0,0-1.4,1.353v3.247a1.379,1.379,0,0,0,1.4,1.353h0.841v14.071H51.541a1.354,1.354,0,1,0,0,2.706H73.4a1.354,1.354,0,1,0,0-2.706H72.556V414.088H73.4Zm-22.7-1.353v-3.247a0.827,0.827,0,0,1,.841-0.811H73.4a0.827,0.827,0,0,1,.841.811v3.247a0.828,0.828,0,0,1-.841.812H51.541A0.828,0.828,0,0,1,50.7,412.735ZM63.59,428.159V414.088h6.164v14.071H63.59Zm-8.406,0V414.088h6.164v14.071H55.184Zm6.724-14.071h1.121v14.071H61.908V414.088Zm-8.966,0h1.681v14.071H52.942V414.088ZM73.4,430.324H51.541a0.812,0.812,0,1,1,0-1.624H73.4A0.812,0.812,0,1,1,73.4,430.324ZM72,428.159H70.314V414.088H72v14.071ZM73.4,431H51.541a1.489,1.489,0,1,1,0-2.976h0.7v-13.8h-0.7A1.517,1.517,0,0,1,50,412.735v-3.247A1.517,1.517,0,0,1,51.541,408H73.4a1.517,1.517,0,0,1,1.541,1.488v3.247a1.518,1.518,0,0,1-1.541,1.489H72.7v13.8h0.7A1.489,1.489,0,1,1,73.4,431Zm-21.855-2.706a1.219,1.219,0,1,0,0,2.436H73.4a1.219,1.219,0,1,0,0-2.436H72.416V413.953H73.4a1.241,1.241,0,0,0,1.261-1.218v-3.247a1.241,1.241,0,0,0-1.261-1.217H51.541a1.241,1.241,0,0,0-1.261,1.217v3.247a1.241,1.241,0,0,0,1.261,1.218h0.981v14.341H51.541ZM73.4,430.459H51.541a0.947,0.947,0,1,1,0-1.894H73.4A0.947,0.947,0,1,1,73.4,430.459Zm-21.855-1.624a0.677,0.677,0,1,0,0,1.353H73.4a0.677,0.677,0,1,0,0-1.353H51.541Zm20.594-.541H70.174V413.953h1.961v14.341Zm-1.681-.27h1.4v-13.8h-1.4v13.8Zm-0.56.27H63.45V413.953h6.444v14.341Zm-6.164-.27h5.884v-13.8H63.73v13.8Zm-0.56.27h-1.4V413.953h1.4v14.341Zm-1.121-.27h0.84v-13.8h-0.84v13.8Zm-0.56.27H55.044V413.953h6.445v14.341Zm-6.164-.27h5.884v-13.8H55.324v13.8Zm-0.561.27H52.8V413.953h1.961v14.341Zm-1.681-.27h1.4v-13.8h-1.4v13.8ZM73.4,413.682H51.541a0.965,0.965,0,0,1-.981-0.947v-3.247a0.965,0.965,0,0,1,.981-0.947H73.4a0.966,0.966,0,0,1,.981.947v3.247A0.966,0.966,0,0,1,73.4,413.682Zm-21.855-4.87a0.689,0.689,0,0,0-.7.676v3.247a0.69,0.69,0,0,0,.7.677H73.4a0.69,0.69,0,0,0,.7-0.677v-3.247a0.689,0.689,0,0,0-.7-0.676H51.541Zm14.01,10.959a1.353,1.353,0,1,0,1.4,1.353A1.379,1.379,0,0,0,65.551,419.771Zm0,2.164a0.812,0.812,0,1,1,.84-0.811A0.827,0.827,0,0,1,65.551,421.935Zm0,0.677a1.489,1.489,0,1,1,1.541-1.488A1.518,1.518,0,0,1,65.551,422.612Zm0-2.706a1.218,1.218,0,1,0,1.261,1.218A1.241,1.241,0,0,0,65.551,419.906Zm0,2.165a0.948,0.948,0,1,1,.981-0.947A0.966,0.966,0,0,1,65.551,422.071Zm0-1.624a0.677,0.677,0,1,0,.7.677A0.69,0.69,0,0,0,65.551,420.447Zm-6.164-.676a1.353,1.353,0,1,0,1.4,1.353A1.379,1.379,0,0,0,59.387,419.771Zm0,2.164a0.812,0.812,0,1,1,.841-0.811A0.827,0.827,0,0,1,59.387,421.935Zm0,0.677a1.489,1.489,0,1,1,1.541-1.488A1.517,1.517,0,0,1,59.387,422.612Zm0-2.706a1.218,1.218,0,1,0,1.261,1.218A1.241,1.241,0,0,0,59.387,419.906Zm0,2.165a0.948,0.948,0,1,1,.981-0.947A0.965,0.965,0,0,1,59.387,422.071Zm0-1.624a0.677,0.677,0,1,0,.7.677A0.69,0.69,0,0,0,59.387,420.447Zm-4.2-7.441h14.57a0.552,0.552,0,0,0,.561-0.541v-2.706a0.551,0.551,0,0,0-.561-0.541H55.184a0.551,0.551,0,0,0-.56.541v2.706A0.552,0.552,0,0,0,55.184,413.006Zm0-3.247h14.57v2.706H55.184v-2.706Zm14.57,3.382H55.184a0.689,0.689,0,0,1-.7-0.676v-2.706a0.69,0.69,0,0,1,.7-0.677h14.57a0.69,0.69,0,0,1,.7.677v2.706A0.689,0.689,0,0,1,69.754,413.141Zm-14.57-3.788a0.414,0.414,0,0,0-.421.406v2.706a0.415,0.415,0,0,0,.421.406h14.57a0.414,0.414,0,0,0,.42-0.406v-2.706a0.414,0.414,0,0,0-.42-0.406H55.184Zm14.71,3.247H55.044v-2.976H69.894V412.6Zm-14.57-.271h14.29v-2.435H55.324v2.435Z" transform="translate(-50 -408)"/>
</svg>
