<svg xmlns="http://www.w3.org/2000/svg" width="1002" height="569" viewBox="0 0 1002 569">
  <defs>
    <style>
      .cls-1 {
        fill: #edeff0;
        fill-rule: evenodd;
      }
    </style>
  </defs>
  <path class="cls-1" d="M1230.13,1394H369.865A70.91,70.91,0,0,1,299,1323.21v1.34a1.39,1.39,0,1,1,2.779,0v-1.34a68.126,68.126,0,0,0,68.086,68.01H1230.13a68.124,68.124,0,0,0,68.09-68.01V895.793a68.127,68.127,0,0,0-68.09-68.017,1.389,1.389,0,1,1,0-2.777A70.911,70.911,0,0,1,1301,895.793V1323.21A70.911,70.911,0,0,1,1230.13,1394Z" transform="translate(-299 -825)"/>
</svg>
