<svg xmlns="http://www.w3.org/2000/svg" width="1002" height="924" viewBox="0 0 1002 924">
  <defs>
    <style>
      .cls-1 {
        fill: #edeff0;
        fill-rule: evenodd;
      }
    </style>
  </defs>
  <path class="cls-1" d="M1308.13,2558H447.865A70.91,70.91,0,0,0,377,2628.79v-1.34a1.39,1.39,0,1,0,2.779,0v1.34a68.126,68.126,0,0,1,68.086-68.01H1308.13a68.124,68.124,0,0,1,68.09,68.01v847.42a68.124,68.124,0,0,1-68.09,68.01,1.39,1.39,0,0,0,0,2.78,70.911,70.911,0,0,0,70.87-70.79V2628.79A70.911,70.911,0,0,0,1308.13,2558Z" transform="translate(-377 -2558)"/>
</svg>
