<?xml version="1.0" encoding="utf-8"?>
<!-- Generator: Adobe Illustrator 16.0.0, SVG Export Plug-In . SVG Version: 6.00 Build 0)  -->
<!DOCTYPE svg PUBLIC "-//W3C//DTD SVG 1.1//EN" "http://www.w3.org/Graphics/SVG/1.1/DTD/svg11.dtd">
<svg version="1.1" id="Layer_2" xmlns="http://www.w3.org/2000/svg" xmlns:xlink="http://www.w3.org/1999/xlink" x="0px" y="0px"
	 width="447.5px" height="30.144px" viewBox="-148.5 35.144 447.5 30.144" enable-background="new -148.5 35.144 447.5 30.144"
	 xml:space="preserve">
<path fill="#A1CF6B" d="M-148.5,54.144c0,0,25.966-9.336,35.447-8.66c9.48,0.678,36.492,2.935,40.367,4.967
	c3.877,2.031,0,14.555,0,14.555H-148.5V54.144z"/>
<path fill="#6DBF56" d="M-148.5,54.144c0,0,20.098,3.078,29.126,2.176s60.497-9.028,85.103-8.127
	C-9.667,49.095,1.5,54.144,1.5,54.144v10.86h-150V54.144z"/>
<path fill="#A1CF6B" d="M1,54.144c0,0,25.966-9.336,35.447-8.66c9.48,0.678,36.492,2.935,40.367,4.967
	c3.877,2.031,0,14.555,0,14.555H1V54.144z"/>
<path fill="#6DBF56" d="M0,54.144c0,0,20.098,3.078,29.126,2.176s60.497-9.028,85.103-8.127C138.833,49.095,150,54.144,150,54.144
	v10.86H0V54.144z"/>
<path fill="#A1CF6B" d="M149,54.144c0,0,25.966-9.336,35.447-8.66c9.48,0.678,36.492,2.935,40.367,4.967
	c3.877,2.031,0,14.555,0,14.555H149V54.144z"/>
<path fill="#6DBF56" d="M149,54.144c0,0,20.098,3.078,29.126,2.176s60.497-9.028,85.103-8.127C287.833,49.095,299,54.144,299,54.144
	v10.86H149V54.144z"/>
</svg>
